Exploratory Data Analysis
…
p40, p60, p70, p80 : 40%, 60%, 70%, 80% percentiles

p90, p95, p99, p100 : 90%, 95%, 99%, 100% percentiles

For example, we can computes the statistics of all numerical variables in carseats:

describe(carseats)
Warning: The `x` argument of `as_tibble.matrix()` must have unique column names if `.name_repair` is omitted as of tibble 2.0.0.
Using compatibility `.name_repair`.
This warning is displayed once every 8 hours.
Call `lifecycle::last_warnings()` to see where this warning was generated.
Warning: `cols` is now required when using unnest().
Please use `cols = c(statistic)`
# A tibble: 8 x 26
  variable     n    na   mean    sd se_mean   IQR skewness kurtosis   p00    p01
  <chr>    <int> <int>  <dbl> <dbl>   <dbl> <dbl>    <dbl>    <dbl> <dbl>  <dbl>
1 Sales      400     0   7.50  2.82   0.141  3.93   0.186   -0.0809     0  0.906
2 CompPri~   400     0 125.   15.3    0.767 20     -0.0428   0.0417    77 89.0  
3 Income     380    20  68.9  28.1    1.44  48.2    0.0449  -1.09      21 21.8  
4 Adverti~   400     0   6.64  6.65   0.333 12      0.640   -0.545      0  0    
# ... with 4 more rows, and 15 more variables: p05 <dbl>, p10 <dbl>, p20 <dbl>,
#   p25 <dbl>, p30 <dbl>, p40 <dbl>, p50 <dbl>, p60 <dbl>, p70 <dbl>,
#   p75 <dbl>, p80 <dbl>, p90 <dbl>, p95 <dbl>, p99 <dbl>, p100 <dbl>
…
Please use `cols = c(statistic)`
# A tibble: 3 x 26
  variable     n    na   mean    sd se_mean   IQR skewness kurtosis   p00    p01
  <chr>    <int> <int>  <dbl> <dbl>   <dbl> <dbl>    <dbl>    <dbl> <dbl>  <dbl>
1 Sales      400     0   7.50  2.82   0.141  3.93   0.186   -0.0809     0  0.906
2 CompPri~   400     0 125.   15.3    0.767 20     -0.0428   0.0417    77 89.0  
3 Income     380    20  68.9  28.1    1.44  48.2    0.0449  -1.09      21 21.8  
# ... with 15 more variables: p05 <dbl>, p10 <dbl>, p20 <dbl>, p25 <dbl>,
#   p30 <dbl>, p40 <dbl>, p50 <dbl>, p60 <dbl>, p70 <dbl>, p75 <dbl>,
#   p80 <dbl>, p90 <dbl>, p95 <dbl>, p99 <dbl>, p100 <dbl>
# Select all columns except those from year to day (inclusive)
describe(carseats, -(Sales:Income))
Warning: `cols` is now required when using unnest().
Please use `cols = c(statistic)`
# A tibble: 5 x 26
  variable     n    na   mean     sd se_mean   IQR skewness kurtosis   p00   p01
  <chr>    <int> <int>  <dbl>  <dbl>   <dbl> <dbl>    <dbl>    <dbl> <dbl> <dbl>
1 Adverti~   400     0   6.64   6.65   0.333  12     0.640    -0.545     0   0  
2 Populat~   400     0 265.   147.     7.37  260.   -0.0512   -1.20     10  16.0
3 Price      400     0 116.    23.7    1.18   31    -0.125     0.452    24  55.0
4 Age        400     0  53.3   16.2    0.810  26.2  -0.0772   -1.13     25  25  
# ... with 1 more row, and 15 more variables: p05 <dbl>, p10 <dbl>, p20 <dbl>,
#   p25 <dbl>, p30 <dbl>, p40 <dbl>, p50 <dbl>, p60 <dbl>, p70 <dbl>,
#   p75 <dbl>, p80 <dbl>, p90 <dbl>, p95 <dbl>, p99 <dbl>, p100 <dbl>

By using dplyr, You can sort by left or right skewed size(skewness).:

carseats %>%
  describe() %>%
  select(variable, skewness, mean, p25, p50, p75) %>% 
  filter(!is.na(skewness)) %>% 
  arrange(desc(abs(skewness)))
Warning: `cols` is now required when using unnest().
Please use `cols = c(statistic)`
# A tibble: 8 x 6
  variable    skewness   mean    p25    p50    p75
  <chr>          <dbl>  <dbl>  <dbl>  <dbl>  <dbl>
1 Advertising   0.640    6.64   0      5     12   
2 Sales         0.186    7.50   5.39   7.49   9.32
3 Price        -0.125  116.   100    117    131   
4 Age          -0.0772  53.3   39.8   54.5   66   
# ... with 4 more rows
…
carseats %>%
  group_by(US, Urban) %>% 
  describe(Sales, Income) 
Warning: `cols` is now required when using unnest().
Please use `cols = c(statistic)`
# A tibble: 12 x 28
  variable US    Urban     n    na  mean    sd se_mean   IQR skewness kurtosis
  <chr>    <fct> <fct> <dbl> <dbl> <dbl> <dbl>   <dbl> <dbl>    <dbl>    <dbl>
1 Sales    No    No       46     0  6.46  2.72   0.402 3.15    0.0889    1.53 
2 Sales    No    Yes      92     0  7.00  2.58   0.269 3.49    0.492     0.306
3 Sales    No    <NA>      4     0  6.99  1.28   0.639 0.827   1.69      3.16 
4 Sales    Yes   No       69     0  8.23  2.65   0.319 4.1    -0.0212   -0.777
# ... with 8 more rows, and 17 more variables: p00 <dbl>, p01 <dbl>, p05 <dbl>,
#   p10 <dbl>, p20 <dbl>, p25 <dbl>, p30 <dbl>, p40 <dbl>, p50 <dbl>,
#   p60 <dbl>, p70 <dbl>, p75 <dbl>, p80 <dbl>, p90 <dbl>, p95 <dbl>,
#   p99 <dbl>, p100 <dbl>
…
The variables of tbl_df object returned by normality() are as follows.

statistic : Statistics of the Shapiro-Wilk test

p_value : p-value of the Shapiro-Wilk test

sample : Number of sample observations performed Shapiro-Wilk test

normality() performs the normality test for all numerical variables of carseats as follows.:

normality(carseats)
Warning: `cols` is now required when using unnest().
Please use `cols = c(statistic)`
# A tibble: 8 x 4
  vars        statistic  p_value sample
  <chr>           <dbl>    <dbl>  <dbl>
1 Sales           0.995 2.54e- 1    400
2 CompPrice       0.998 9.77e- 1    400
3 Income          0.961 1.52e- 8    400
4 Advertising     0.874 1.49e-17    400
# ... with 4 more rows
…
# Select all columns except those from year to day (inclusive)
normality(carseats, -(Sales:Income))
Warning: `cols` is now required when using unnest().
Please use `cols = c(statistic)`
# A tibble: 5 x 4
  vars        statistic  p_value sample
  <chr>           <dbl>    <dbl>  <dbl>
1 Advertising     0.874 1.49e-17    400
2 Population      0.952 4.08e-10    400
3 Price           0.996 3.90e- 1    400
4 Age             0.957 1.86e- 9    400
# ... with 1 more row

You can use dplyr to sort non-normal distribution variables by p_value.:

library(dplyr)

carseats %>%
  normality() %>%
  filter(p_value <= 0.01) %>% 
  arrange(abs(p_value))
Warning: `cols` is now required when using unnest().
Please use `cols = c(statistic)`
# A tibble: 5 x 4
  vars        statistic  p_value sample
  <chr>           <dbl>    <dbl>  <dbl>
1 Advertising     0.874 1.49e-17    400
2 Education       0.924 2.43e-13    400
3 Population      0.952 4.08e-10    400
4 Age             0.957 1.86e- 9    400
# ... with 1 more row

In particular, the Advertising variable is considered to be the most out of the normal distribution.

The normality() function supports the group_by() function syntax in the dplyr package.

carseats %>%
  group_by(ShelveLoc, US) %>%
  normality(Income) %>% 
  arrange(desc(p_value))
Warning: `cols` is now required when using unnest().
Please use `cols = c(statistic)`
# A tibble: 6 x 6
  variable ShelveLoc US    statistic p_value sample
  <chr>    <fct>     <fct>     <dbl>   <dbl>  <dbl>
1 Income   Bad       No        0.969  0.470      34
2 Income   Bad       Yes       0.958  0.0343     62
3 Income   Good      No        0.902  0.0328     24
4 Income   Good      Yes       0.955  0.0296     61
# ... with 2 more rows
…
Bivariate data EDA

Calculation of correlation coefficient using correlate()

Correlate() finds the correlation coefficient of all combinations of carseats numerical variables as follows:

correlate(carseats)
# A tibble: 56 x 3
  var1        var2  coef_corr
  <fct>       <fct>     <dbl>
1 CompPrice   Sales    0.0641
2 Income      Sales    0.151 
3 Advertising Sales    0.270 
4 Population  Sales    0.0505
# ... with 52 more rows

The following example performs a normality test only on combinations that include several selected variables.

# Select columns by name
correlate(carseats, Sales, CompPrice, Income)
# A tibble: 21 x 3
  var1      var2      coef_corr
  <fct>     <fct>         <dbl>
1 CompPrice Sales        0.0641
2 Income    Sales        0.151 
3 Sales     CompPrice    0.0641
4 Income    CompPrice   -0.0761
# ... with 17 more rows

# Select all columns between year and day (inclusive)
correlate(carseats, Sales:Income)
# A tibble: 21 x 3
  var1      var2      coef_corr
  <fct>     <fct>         <dbl>
1 CompPrice Sales        0.0641
2 Income    Sales        0.151 
3 Sales     CompPrice    0.0641
4 Income    CompPrice   -0.0761
# ... with 17 more rows

# Select all columns except those from year to day (inclusive)
correlate(carseats, -(Sales:Income))
# A tibble: 35 x 3
  var1        var2  coef_corr
  <fct>       <fct>     <dbl>
1 Advertising Sales    0.270 
2 Population  Sales    0.0505
3 Price       Sales   -0.445 
4 Age         Sales   -0.232 
# ... with 31 more rows
…
The correlate() function also supports the group_by() function syntax in the dplyr package.

carseats %>%
  filter(ShelveLoc == "Good") %>%
  group_by(Urban, US) %>%
  correlate(Sales) %>%
  filter(abs(coef_corr) > 0.5)
# A tibble: 10 x 5
  Urban US    var1  var2       coef_corr
  <fct> <fct> <fct> <fct>          <dbl>
1 No    No    Sales Population    -0.530
2 No    No    Sales Price         -0.838
3 No    Yes   Sales Price         -0.630
4 Yes   No    Sales Price         -0.833
# ... with 6 more rows
…
# Negative values to drop variables, and In-memory mode and collect size is 200
con_sqlite %>% 
  tbl("TB_CARSEATS") %>% 
  describe(-Sales, -CompPrice, -Income, collect_size = 200)
Warning: `cols` is now required when using unnest().
Please use `cols = c(statistic)`
# A tibble: 5 x 26
  variable     n    na   mean     sd se_mean   IQR skewness kurtosis   p00   p01
  <chr>    <int> <int>  <dbl>  <dbl>   <dbl> <dbl>    <dbl>    <dbl> <dbl> <dbl>
1 Adverti~   200     0   5.88   6.07   0.429  11     0.648    -0.667     0   0  
2 Populat~   200     0 255.   149.    10.6   251.    0.0241   -1.22     10  16  
3 Price      200     0 114.    23.7    1.68   31.2  -0.107     1.08     24  54.9
4 Age        200     0  54.6   15.9    1.13   24    -0.245    -1.01     25  25  
# ... with 1 more row, and 15 more variables: p05 <dbl>, p10 <dbl>, p20 <dbl>,
#   p25 <dbl>, p30 <dbl>, p40 <dbl>, p50 <dbl>, p60 <dbl>, p70 <dbl>,
#   p75 <dbl>, p80 <dbl>, p90 <dbl>, p95 <dbl>, p99 <dbl>, p100 <dbl>

# Find the statistic of all numerical variables by 'ShelveLoc' and 'US',
# and extract only those with 'ShelveLoc' variable level is "Good".
con_sqlite %>% 
  tbl("TB_CARSEATS") %>% 
  group_by(ShelveLoc, US) %>%
  describe() %>%
  filter(ShelveLoc == "Good")
Warning: `cols` is now required when using unnest().
Please use `cols = c(statistic)`
# A tibble: 8 x 27
  variable ShelveLoc     n    na   mean    sd se_mean   IQR skewness kurtosis
  <chr>    <chr>     <dbl> <dbl>  <dbl> <dbl>   <dbl> <dbl>    <dbl>    <dbl>
1 Sales    Good         85     0  10.2   2.50   0.271  3.63  -0.0759   -0.261
2 CompPri~ Good         85     0 126.   15.0    1.62  22      0.0141   -0.490
3 Income   Good         80     5  68.2  27.9    3.12  49     -0.112    -1.22 
4 Adverti~ Good         85     0   7.35  6.80   0.738 12      0.424    -0.901
# ... with 4 more rows, and 17 more variables: p00 <dbl>, p01 <dbl>, p05 <dbl>,
#   p10 <dbl>, p20 <dbl>, p25 <dbl>, p30 <dbl>, p40 <dbl>, p50 <dbl>,
#   p60 <dbl>, p70 <dbl>, p75 <dbl>, p80 <dbl>, p90 <dbl>, p95 <dbl>,
#   p99 <dbl>, p100 <dbl>
…
Test of normality on numeric columns using in the DBMS

# Test all numerical variables by 'ShelveLoc' and 'US',
# and extract only those with 'ShelveLoc' variable level is "Good".
con_sqlite %>% 
  tbl("TB_CARSEATS") %>% 
 group_by(ShelveLoc, US) %>%
 normality() %>%
 filter(ShelveLoc == "Good")
Warning: `cols` is now required when using unnest().
Please use `cols = c(statistic)`
# A tibble: 16 x 6
  variable  ShelveLoc US    statistic p_value sample
  <chr>     <chr>     <chr>     <dbl>   <dbl>  <dbl>
1 Sales     Good      No        0.955   0.342     24
2 Sales     Good      Yes       0.983   0.567     61
3 CompPrice Good      No        0.970   0.658     24
4 CompPrice Good      Yes       0.984   0.598     61
# ... with 12 more rows

# extract only those with 'Urban' variable level is "Yes",
# and test 'Sales' by 'ShelveLoc' and 'US'
con_sqlite %>% 
  tbl("TB_CARSEATS") %>% 
 filter(Urban == "Yes") %>%
 group_by(ShelveLoc, US) %>%
 normality(Sales)
Warning: `cols` is now required when using unnest().
Please use `cols = c(statistic)`
# A tibble: 6 x 6
  variable ShelveLoc US    statistic p_value sample
  <chr>    <chr>     <chr>     <dbl>   <dbl>  <dbl>
1 Sales    Bad       No        0.985   0.968     23
2 Sales    Bad       Yes       0.985   0.774     50
3 Sales    Good      No        0.959   0.576     18
4 Sales    Good      Yes       0.969   0.384     37
# ... with 2 more rows
…
Compute the correlation coefficient between two columns of table in DBMS

# Correlation coefficient
# that eliminates redundant combination of variables
con_sqlite %>% 
  tbl("TB_CARSEATS") %>% 
  correlate() %>%
  filter(as.integer(var1) > as.integer(var2))
# A tibble: 28 x 3
  var1        var2  coef_corr
  <fct>       <fct>     <dbl>
1 CompPrice   Sales    0.0641
2 Income      Sales    0.141 
3 Advertising Sales    0.270 
4 Population  Sales    0.0505
# ... with 24 more rows

con_sqlite %>% 
  tbl("TB_CARSEATS") %>% 
  correlate(Sales, Price) %>%
  filter(as.integer(var1) > as.integer(var2))
# A tibble: 5 x 3
  var1  var2        coef_corr
  <fct> <fct>           <dbl>
1 Price Sales         -0.445 
2 Price CompPrice      0.585 
3 Price Income        -0.0484
4 Price Advertising    0.0445
# ... with 1 more row

# Compute the correlation coefficient of Sales variable by 'ShelveLoc'
# and 'US' variables. And extract only those with absolute
# value of correlation coefficient is greater than 0.5
con_sqlite %>% 
  tbl("TB_CARSEATS") %>% 
  group_by(ShelveLoc, US) %>%
  correlate(Sales) %>%
  filter(abs(coef_corr) >= 0.5)
# A tibble: 6 x 5
  ShelveLoc US    var1  var2  coef_corr
  <chr>     <chr> <fct> <fct>     <dbl>
1 Bad       No    Sales Price    -0.527
2 Bad       Yes   Sales Price    -0.583
3 Good      No    Sales Price    -0.811
4 Good      Yes   Sales Price    -0.603
# ... with 2 more rows

# extract only those with 'ShelveLoc' variable level is "Good",
# and compute the correlation coefficient of 'Sales' variable
# by 'Urban' and 'US' variables.
# And the correlation coefficient is negative and smaller than 0.5
con_sqlite %>% 
  tbl("TB_CARSEATS") %>% 
  filter(ShelveLoc == "Good") %>%
  group_by(Urban, US) %>%
  correlate(Sales) %>%
  filter(coef_corr < 0) %>%
  filter(abs(coef_corr) > 0.5)
# A tibble: 10 x 5
  Urban US    var1  var2       coef_corr
  <chr> <chr> <fct> <fct>          <dbl>
1 No    No    Sales Population    -0.530
2 No    No    Sales Price         -0.838
3 No    Yes   Sales Price         -0.644
4 Yes   No    Sales Price         -0.833
# ... with 6 more rows
…
